…
rating
0
1
6.39e+00
1.05e+00
1.6
5.80e+00
6.50e+00
7.10e+00
9.30e+00
▁▁▆▇▁

unique(movies) #find unique records in the data set

## # A tibble: 2,961 × 11
##    title genre direc…¹  year durat…²  gross budget cast_…³  votes reviews rating
##    <chr> <chr> <chr>   <dbl>   <dbl>  <dbl>  <dbl>   <dbl>  <dbl>   <dbl>  <dbl>
##  1 Avat… Acti… James …  2009     178 7.61e8 2.37e8    4834 8.86e5    3777    7.9
##  2 Tita… Drama James …  1997     194 6.59e8 2   e8   45223 7.93e5    2843    7.7
##  3 Jura… Acti… Colin …  2015     124 6.52e8 1.5 e8    8458 4.18e5    1934    7  
##  4 The … Acti… Joss W…  2012     173 6.23e8 2.2 e8   87697 9.95e5    2425    8.1
##  5 The … Acti… Christ…  2008     152 5.33e8 1.85e8   57802 1.68e6    5312    9  
##  6 Star… Acti… George…  1999     136 4.75e8 1.15e8   37723 5.35e5    3917    6.5
##  7 Star… Acti… George…  1977     125 4.61e8 1.1 e7   13485 9.11e5    1752    8.7
##  8 Aven… Acti… Joss W…  2015     141 4.59e8 2.5 e8   92000 4.63e5    1752    7.5
##  9 The … Acti… Christ…  2012     164 4.48e8 2.5 e8  106759 1.14e6    3514    8.5
## 10 Shre… Adve… Andrew…  2004      93 4.36e8 1.5 e8    1148 3.15e5     688    7.2
## # … with 2,951 more rows, and abbreviated variable names ¹​director, ²​duration,
## #   ³​cast_facebook_likes
…
library(tidytext)
final_data

## # A tibble: 1,292,843 × 19
##    cand_nm   contb…¹ zip   contb_date type  prima…² accep…³ unacc…⁴ state county
##    <chr>       <dbl> <chr> <date>     <chr> <chr>   <chr>   <chr>   <chr> <chr> 
##  1 Clinton,…    50   94939 2016-04-26 STAN… Larksp… <NA>    <NA>    CA    Marin…
##  2 Clinton,…   200   93428 2016-04-20 STAN… Cambria <NA>    <NA>    CA    San L…
##  3 Clinton,…     5   92337 2016-04-02 STAN… Fontana <NA>    <NA>    CA    San B…
##  4 Trump, D…    48.3 95334 2016-11-21 STAN… Living… <NA>    <NA>    CA    Merce…
##  5 Sanders,…    40   93011 2016-03-04 PO B… Camari… <NA>    <NA>    CA    Ventu…
##  6 Trump, D…   244.  95826 2016-11-24 STAN… Sacram… <NA>    Walsh … CA    Sacra…
##  7 Sanders,…    35   90278 2016-03-05 STAN… Redond… <NA>    <NA>    CA    Los A…
##  8 Sanders,…   100   90278 2016-03-06 STAN… Redond… <NA>    <NA>    CA    Los A…
##  9 Sanders,…    25   92084 2016-03-04 STAN… Vista   <NA>    <NA>    CA    San D…
## 10 Clinton,…    40   92637 2016-04-20 STAN… Laguna… Laguna… Laguna… CA    Orang…
## # … with 1,292,833 more rows, 9 more variables: timezone <chr>,
## #   area_codes <dbl>, latitude <dbl>, longitude <dbl>, world_region <chr>,
## #   country <chr>, decommissioned <dbl>, estimated_population <dbl>,
## #   notes <chr>, and abbreviated variable names ¹​contb_receipt_amt,
## #   ²​primary_city, ³​acceptable_cities, ⁴​unacceptable_cities
…
